{
  "isSuccess": 1,
  "type": "info",
  "data": {
    "total": 63,
    "per_page": 15,
    "current_page": 1,
    "last_page": 5,
    "from": 1,
    "to": 15,
    "data": [
      {
        "id": "103070697",
        "serial_number": "23F22836927B08B1C562DAA47492AD4B",
        "lottery_id": "1",
        "amount": "1.7600",
        "display_bet_number": "3|4|5|6|7|8|9|10|11|12|13|14|15",
        "status": "3",
        "created_at": "2017-08-19 21:24:42",
        "way_id": "201",
        "bet_number": "3|4|5|6|7|8|9|10|11|12|13|14|15",
        "trace_id": null,
        "user_id": "43090",
        "username": "testtvd001",
        "is_tester": "1",
        "user_forefather_ids": "78,43016",
        "account_id": "42947",
        "prize_group": "1950",
        "multiple": "1",
        "issue": "170819093",
        "title": "\u4efb\u4e8c\u76f4\u9009\u548c\u503c",
        "bet_source": "webpage",
        "is_overprize": "0",
        "prize_added": "0",
        "coefficient": "0.01",
        "status_prize": "4",
        "commission": "0.0000",
        "winning_number": "73351",
        "total_prize": null,
        "prize": "1.950000",
        "status_commission": "4",
        "locked_prize": "0",
        "locked_commission": "0",
        "prize_set": "{\"57\":{\"1\":\"195.0000\"}}",
        "ip": "10.9.2.28",
        "position": "14",
        "proxy_ip": "10.8.16.10",
        "canceled_by": null,
        "bought_at": "2017-08-19 21:24:42",
        "canceled_at": null,
        "counted_at": "2017-08-19 21:31:06",
        "prize_sent_at": "2017-08-19 21:31:07",
        "commission_sent_at": "2017-08-19 21:31:15",
        "compress_bet_number": null,
        "is_encoded": "1",
        "series_id": "1",
        "series_set_id": "1",
        "skeyiv": "gfh4x2sNhtGTQ6G3DucPXfEZHWKcu3OFnoT46bAuJ4K9Hinbu5VEd4CR+b9cIjPtPm9Sk0H6TAhcebfAaGJpJQ==",
        "friendly_name": "\u91cd\u5e86\u65f6\u65f6\u5f69"
      },
      {
        "id": "102840023",
        "serial_number": "5F8A2D6620C835121174E1DAA79DBADF",
        "lottery_id": "53",
        "amount": "1.0000",
        "display_bet_number": "|2,3,5,8,9||||||||",
        "status": "3",
        "created_at": "2017-08-18 19:13:48",
        "way_id": "271",
        "bet_number": "|12478||||||||",
        "trace_id": null,
        "user_id": "43090",
        "username": "testtvd001",
        "is_tester": "1",
        "user_forefather_ids": "78,43016",
        "account_id": "42947",
        "prize_group": "1950",
        "multiple": "1",
        "issue": "635002",
        "title": "\u731c\u8f66\u53f7\u5b9a\u4f4d\u80c6\u5b9a\u4f4d\u80c6",
        "bet_source": "webpage",
        "is_overprize": "0",
        "prize_added": "0",
        "coefficient": "0.10",
        "status_prize": "4",
        "commission": "0.0000",
        "winning_number": "9,8,5,7,3,6,4,1,2,10",
        "total_prize": null,
        "prize": "1.950000",
        "status_commission": "4",
        "locked_prize": "0",
        "locked_commission": "0",
        "prize_set": "{\"102\":{\"1\":\"19.5000\"}}",
        "ip": "10.9.2.28",
        "position": "",
        "proxy_ip": "10.8.16.10",
        "canceled_by": null,
        "bought_at": "2017-08-18 19:13:48",
        "canceled_at": null,
        "counted_at": "2017-08-18 19:19:19",
        "prize_sent_at": "2017-08-18 19:19:19",
        "commission_sent_at": "2017-08-18 19:19:18",
        "compress_bet_number": null,
        "is_encoded": "1",
        "series_id": "19",
        "series_set_id": "1",
        "skeyiv": "oo2LVit104POqPkVHBygm6KBjMNTWEwHUiROoJrn\/CcodP7X2HP9qf\/G6MmRF0VGGP\/zhIc+Px5dBX91ns\/b1w==",
        "friendly_name": "\u5317\u4eacPK10"
      },
      {
        "id": "102839948",
        "serial_number": "7E4BA9D3A5E9177C6667D93D79BCA315",
        "lottery_id": "53",
        "amount": "1.0000",
        "display_bet_number": "1,3,5,6,9|||||||||",
        "status": "3",
        "created_at": "2017-08-18 19:13:23",
        "way_id": "271",
        "bet_number": "02458|||||||||",
        "trace_id": null,
        "user_id": "43090",
        "username": "testtvd001",
        "is_tester": "1",
        "user_forefather_ids": "78,43016",
        "account_id": "42947",
        "prize_group": "1950",
        "multiple": "1",
        "issue": "635002",
        "title": "\u731c\u8f66\u53f7\u5b9a\u4f4d\u80c6\u5b9a\u4f4d\u80c6",
        "bet_source": "webpage",
        "is_overprize": "0",
        "prize_added": "0",
        "coefficient": "0.10",
        "status_prize": "4",
        "commission": "0.0000",
        "winning_number": "9,8,5,7,3,6,4,1,2,10",
        "total_prize": null,
        "prize": "1.950000",
        "status_commission": "4",
        "locked_prize": "0",
        "locked_commission": "0",
        "prize_set": "{\"102\":{\"1\":\"19.5000\"}}",
        "ip": "10.9.2.28",
        "position": "",
        "proxy_ip": "10.8.16.10",
        "canceled_by": null,
        "bought_at": "2017-08-18 19:13:23",
        "canceled_at": null,
        "counted_at": "2017-08-18 19:19:19",
        "prize_sent_at": "2017-08-18 19:19:19",
        "commission_sent_at": "2017-08-18 19:19:18",
        "compress_bet_number": null,
        "is_encoded": "1",
        "series_id": "19",
        "series_set_id": "1",
        "skeyiv": "wSJFIAVzDi5NtDrQ8ZxMFXsA9oImthj0OCrIqGDSRx+cTzlugaGDi\/gUQCggzQdAN5C8+nrEEBgC+vSB72C9Og==",
        "friendly_name": "\u5317\u4eacPK10"
      },
      {
        "id": "102812439",
        "serial_number": "F9DBE2B5E7515FAD731A1A02A6F74E3F",
        "lottery_id": "44",
        "amount": "200.0000",
        "display_bet_number": "\u95f2",
        "status": "2",
        "created_at": "2017-08-18 17:00:04",
        "way_id": "250",
        "bet_number": "0",
        "trace_id": null,
        "user_id": "43090",
        "username": "testtvd001",
        "is_tester": "1",
        "user_forefather_ids": "78,43016",
        "account_id": "42947",
        "prize_group": "1950",
        "multiple": "10000",
        "issue": "1708180745",
        "title": "\u95f2\u5e84\u5927\u5c0f",
        "bet_source": "webpage",
        "is_overprize": "0",
        "prize_added": "0",
        "coefficient": "0.01",
        "status_prize": "0",
        "commission": "0.0098",
        "winning_number": "26 23 30|41 04",
        "total_prize": null,
        "prize": null,
        "status_commission": "4",
        "locked_prize": "0",
        "locked_commission": "0",
        "prize_set": "{\"89\":{\"1\":\"4.0000\",\"2\":\"3.0000\",\"3\":\"2.0000\"}}",
        "ip": "10.9.2.28",
        "position": "",
        "proxy_ip": "10.8.16.10",
        "canceled_by": null,
        "bought_at": "2017-08-18 17:00:04",
        "canceled_at": null,
        "counted_at": null,
        "prize_sent_at": null,
        "commission_sent_at": "2017-08-18 17:00:43",
        "compress_bet_number": null,
        "is_encoded": "1",
        "series_id": "18",
        "series_set_id": "2",
        "skeyiv": "z0SLAItiLirZtmf3HWf2WZhfliDJftosxbSTJLnSBHx43rdnDnvhxgKKYhU1UxhRXr9elXsOpO1f9G7mhjImGg==",
        "friendly_name": "\u767e\u5bb6\u4e50\u5a31\u4e501\u684c"
      },
      {
        "id": "102644068",
        "serial_number": "DA2BAE26EBDF53D71EE4AF1AE22AD8BB",
        "lottery_id": "53",
        "amount": "238.9800",
        "display_bet_number": "1,2,3|||||||||",
        "status": "2",
        "created_at": "2017-08-17 20:37:19",
        "way_id": "271",
        "bet_number": "012|||||||||",
        "trace_id": null,
        "user_id": "43090",
        "username": "testtvd001",
        "is_tester": "1",
        "user_forefather_ids": "78,43016",
        "account_id": "42947",
        "prize_group": "1950",
        "multiple": "3983",
        "issue": "634840",
        "title": "\u731c\u8f66\u53f7\u5b9a\u4f4d\u80c6\u5b9a\u4f4d\u80c6",
        "bet_source": "webpage",
        "is_overprize": "0",
        "prize_added": "0",
        "coefficient": "0.01",
        "status_prize": "0",
        "commission": "0.0000",
        "winning_number": "10,9,5,2,7,3,1,4,6,8",
        "total_prize": null,
        "prize": null,
        "status_commission": "4",
        "locked_prize": "0",
        "locked_commission": "0",
        "prize_set": "{\"102\":{\"1\":\"19.5000\"}}",
        "ip": "10.9.2.33",
        "position": "",
        "proxy_ip": "10.8.16.10",
        "canceled_by": null,
        "bought_at": "2017-08-17 20:37:19",
        "canceled_at": null,
        "counted_at": null,
        "prize_sent_at": null,
        "commission_sent_at": "2017-08-17 20:43:14",
        "compress_bet_number": null,
        "is_encoded": "1",
        "series_id": "19",
        "series_set_id": "1",
        "skeyiv": "e6D6WkGD7M1\/ShjPVOY3X26OQB7Ry88IJgpMVzCjOCEBYN2yf\/S3sQV33\/uOkRijfmXdGcbQHAtoKVBrXqG7CA==",
        "friendly_name": "\u5317\u4eacPK10"
      },
      {
        "id": "102264739",
        "serial_number": "784F40C80DC0663EB4C7AE29F16798F3",
        "lottery_id": "1",
        "amount": "10.0000",
        "display_bet_number": "2|2|2|2|2",
        "status": "2",
        "created_at": "2017-08-15 22:57:35",
        "way_id": "78",
        "bet_number": "2|2|2|2|2",
        "trace_id": null,
        "user_id": "43090",
        "username": "testtvd001",
        "is_tester": "1",
        "user_forefather_ids": "78,43016",
        "account_id": "42947",
        "prize_group": "1950",
        "multiple": "1",
        "issue": "170815108",
        "title": "\u5b9a\u4f4d\u80c6",
        "bet_source": "webpage",
        "is_overprize": "0",
        "prize_added": "0",
        "coefficient": "1.00",
        "status_prize": "0",
        "commission": "0.0000",
        "winning_number": "16981",
        "total_prize": null,
        "prize": null,
        "status_commission": "4",
        "locked_prize": "0",
        "locked_commission": "0",
        "prize_set": "{\"6\":{\"1\":\"19.5000\"}}",
        "ip": "10.9.2.144",
        "position": "",
        "proxy_ip": "10.8.16.10",
        "canceled_by": null,
        "bought_at": "2017-08-15 22:57:35",
        "canceled_at": null,
        "counted_at": null,
        "prize_sent_at": null,
        "commission_sent_at": "2017-08-15 23:01:07",
        "compress_bet_number": null,
        "is_encoded": "1",
        "series_id": "1",
        "series_set_id": "1",
        "skeyiv": "dTbw1CI04jb2tO921yx8wIrAl5edT6efD4uXnRVqwGP+dTZPx7GTua7VffHnZWWETrqBUp12RGO4irjdAYKOjA==",
        "friendly_name": "\u91cd\u5e86\u65f6\u65f6\u5f69"
      },
      {
        "id": "102263846",
        "serial_number": "CA8E8CE009C7ED465E181D7F548779D6",
        "lottery_id": "1",
        "amount": "80.0000",
        "display_bet_number": "0178||||0178",
        "status": "2",
        "created_at": "2017-08-15 22:52:21",
        "way_id": "78",
        "bet_number": "0178||||0178",
        "trace_id": null,
        "user_id": "43090",
        "username": "testtvd001",
        "is_tester": "1",
        "user_forefather_ids": "78,43016",
        "account_id": "42947",
        "prize_group": "1950",
        "multiple": "5",
        "issue": "170815107",
        "title": "\u5b9a\u4f4d\u80c6",
        "bet_source": "webpage",
        "is_overprize": "0",
        "prize_added": "0",
        "coefficient": "1.00",
        "status_prize": "0",
        "commission": "0.0000",
        "winning_number": "35825",
        "total_prize": null,
        "prize": null,
        "status_commission": "4",
        "locked_prize": "0",
        "locked_commission": "0",
        "prize_set": "{\"6\":{\"1\":\"19.5000\"}}",
        "ip": "10.9.2.144",
        "position": "",
        "proxy_ip": "10.8.16.10",
        "canceled_by": null,
        "bought_at": "2017-08-15 22:52:21",
        "canceled_at": null,
        "counted_at": null,
        "prize_sent_at": null,
        "commission_sent_at": "2017-08-15 22:56:12",
        "compress_bet_number": null,
        "is_encoded": "1",
        "series_id": "1",
        "series_set_id": "1",
        "skeyiv": "QfP2ijWZbU9u+o23qelgpZUBVLSUMyd5+yZBuyafmUeupv6nqPfQnVLlLTT9oHMij2DLHMmAGCzpC2v1Go3BuA==",
        "friendly_name": "\u91cd\u5e86\u65f6\u65f6\u5f69"
      },
      {
        "id": "101092343",
        "serial_number": "4BCA320721E33EEDD24B16F9B0A7892B",
        "lottery_id": "44",
        "amount": "456.0000",
        "display_bet_number": "\u5e84",
        "status": "2",
        "created_at": "2017-08-09 18:50:23",
        "way_id": "250",
        "bet_number": "1",
        "trace_id": null,
        "user_id": "43090",
        "username": "testtvd001",
        "is_tester": "1",
        "user_forefather_ids": "78,43016",
        "account_id": "42947",
        "prize_group": "1950",
        "multiple": "22800",
        "issue": "1708090833",
        "title": "\u95f2\u5e84\u5927\u5c0f",
        "bet_source": "webpage",
        "is_overprize": "0",
        "prize_added": "0",
        "coefficient": "0.01",
        "status_prize": "0",
        "commission": "0.0098",
        "winning_number": "40 07|36 03",
        "total_prize": null,
        "prize": null,
        "status_commission": "4",
        "locked_prize": "0",
        "locked_commission": "0",
        "prize_set": "{\"89\":{\"1\":\"4.0000\",\"2\":\"3.0000\",\"3\":\"2.0000\"}}",
        "ip": "10.9.2.144",
        "position": "",
        "proxy_ip": "10.8.16.10",
        "canceled_by": null,
        "bought_at": "2017-08-09 18:50:23",
        "canceled_at": null,
        "counted_at": null,
        "prize_sent_at": null,
        "commission_sent_at": "2017-08-09 18:51:15",
        "compress_bet_number": null,
        "is_encoded": "1",
        "series_id": "18",
        "series_set_id": "2",
        "skeyiv": "JBgxKPB9iG0mUsUbNeiJpI3MGtOf2kdQnP7f2UFXI+GPzTX49T9Cm2nyq0mNyj+epYRuD26mAeXStl9TfAef1Q==",
        "friendly_name": "\u767e\u5bb6\u4e50\u5a31\u4e501\u684c"
      },
      {
        "id": "101092158",
        "serial_number": "B0DD47ABCAB598FAEC22F5E64879F4BB",
        "lottery_id": "44",
        "amount": "227.0000",
        "display_bet_number": "\u95f2",
        "status": "3",
        "created_at": "2017-08-09 18:49:11",
        "way_id": "250",
        "bet_number": "0",
        "trace_id": null,
        "user_id": "43090",
        "username": "testtvd001",
        "is_tester": "1",
        "user_forefather_ids": "78,43016",
        "account_id": "42947",
        "prize_group": "1950",
        "multiple": "11350",
        "issue": "1708090832",
        "title": "\u95f2\u5e84\u5927\u5c0f",
        "bet_source": "webpage",
        "is_overprize": "0",
        "prize_added": "0",
        "coefficient": "0.01",
        "status_prize": "4",
        "commission": "0.0098",
        "winning_number": "09 51|25 19",
        "total_prize": null,
        "prize": "454.000000",
        "status_commission": "4",
        "locked_prize": "0",
        "locked_commission": "0",
        "prize_set": "{\"89\":{\"1\":\"4.0000\",\"2\":\"3.0000\",\"3\":\"2.0000\"}}",
        "ip": "10.9.2.144",
        "position": "",
        "proxy_ip": "10.8.16.10",
        "canceled_by": null,
        "bought_at": "2017-08-09 18:49:11",
        "canceled_at": null,
        "counted_at": "2017-08-09 18:49:28",
        "prize_sent_at": "2017-08-09 18:49:31",
        "commission_sent_at": "2017-08-09 18:49:30",
        "compress_bet_number": null,
        "is_encoded": "1",
        "series_id": "18",
        "series_set_id": "2",
        "skeyiv": "lymZbyyaT8ZLvhqV\/Dugj39tWF7T1gmZpywoEGIbqAGkpvtUZEOxptjWYi7DRncUgv\/+FCZyUiIF+AjNfoJ8Bw==",
        "friendly_name": "\u767e\u5bb6\u4e50\u5a31\u4e501\u684c"
      },
      {
        "id": "101091873",
        "serial_number": "7EF138EA4406C94CBF79736CF4BD888F",
        "lottery_id": "44",
        "amount": "113.0000",
        "display_bet_number": "\u5e84",
        "status": "3",
        "created_at": "2017-08-09 18:47:15",
        "way_id": "250",
        "bet_number": "1",
        "trace_id": null,
        "user_id": "43090",
        "username": "testtvd001",
        "is_tester": "1",
        "user_forefather_ids": "78,43016",
        "account_id": "42947",
        "prize_group": "1950",
        "multiple": "5650",
        "issue": "1708090831",
        "title": "\u95f2\u5e84\u5927\u5c0f",
        "bet_source": "webpage",
        "is_overprize": "0",
        "prize_added": "0",
        "coefficient": "0.01",
        "status_prize": "4",
        "commission": "0.0098",
        "winning_number": "07 38|13 37 08",
        "total_prize": null,
        "prize": "226.000000",
        "status_commission": "4",
        "locked_prize": "0",
        "locked_commission": "0",
        "prize_set": "{\"89\":{\"1\":\"4.0000\",\"2\":\"3.0000\",\"3\":\"2.0000\"}}",
        "ip": "10.9.2.144",
        "position": "",
        "proxy_ip": "10.8.16.10",
        "canceled_by": null,
        "bought_at": "2017-08-09 18:47:15",
        "canceled_at": null,
        "counted_at": "2017-08-09 18:48:10",
        "prize_sent_at": "2017-08-09 18:48:13",
        "commission_sent_at": "2017-08-09 18:48:11",
        "compress_bet_number": null,
        "is_encoded": "1",
        "series_id": "18",
        "series_set_id": "2",
        "skeyiv": "d8TfwXhYLh14XL\/djiEyMunW\/gwuJ3+PddFpB4laz226ngFmx0ehTpBWZhvIdGBsm\/PCu81p2ge+axn5EHeP\/g==",
        "friendly_name": "\u767e\u5bb6\u4e50\u5a31\u4e501\u684c"
      },
      {
        "id": "101091097",
        "serial_number": "8836F40D08F4E22BCB40EE397A9CBDF5",
        "lottery_id": "44",
        "amount": "112.0000",
        "display_bet_number": "\u5e84",
        "status": "3",
        "created_at": "2017-08-09 18:42:04",
        "way_id": "250",
        "bet_number": "1",
        "trace_id": null,
        "user_id": "43090",
        "username": "testtvd001",
        "is_tester": "1",
        "user_forefather_ids": "78,43016",
        "account_id": "42947",
        "prize_group": "1950",
        "multiple": "5600",
        "issue": "1708090827",
        "title": "\u95f2\u5e84\u5927\u5c0f",
        "bet_source": "webpage",
        "is_overprize": "0",
        "prize_added": "0",
        "coefficient": "0.01",
        "status_prize": "4",
        "commission": "0.0098",
        "winning_number": "23 31 09|51 17",
        "total_prize": null,
        "prize": "112.000000",
        "status_commission": "4",
        "locked_prize": "0",
        "locked_commission": "0",
        "prize_set": "{\"89\":{\"1\":\"4.0000\",\"2\":\"3.0000\",\"3\":\"2.0000\"}}",
        "ip": "10.9.2.144",
        "position": "",
        "proxy_ip": "10.8.16.10",
        "canceled_by": null,
        "bought_at": "2017-08-09 18:42:04",
        "canceled_at": null,
        "counted_at": "2017-08-09 18:42:47",
        "prize_sent_at": "2017-08-09 18:42:48",
        "commission_sent_at": "2017-08-09 18:42:48",
        "compress_bet_number": null,
        "is_encoded": "1",
        "series_id": "18",
        "series_set_id": "2",
        "skeyiv": "jvfnvDXbtZe9\/GN\/sdjScr7aeSh2RMqQA+FVTByplSBuXIJShPL4LxNC258fSPkoOVKY5SHJsaEe1e6ixS6n2A==",
        "friendly_name": "\u767e\u5bb6\u4e50\u5a31\u4e501\u684c"
      },
      {
        "id": "101071352",
        "serial_number": "644AC794CB1BD8674243A842123DB1C5",
        "lottery_id": "53",
        "amount": "2.0000",
        "display_bet_number": "1|||||||||",
        "status": "2",
        "created_at": "2017-08-09 16:56:04",
        "way_id": "271",
        "bet_number": "0|||||||||",
        "trace_id": null,
        "user_id": "43090",
        "username": "testtvd001",
        "is_tester": "1",
        "user_forefather_ids": "78,43016",
        "account_id": "42947",
        "prize_group": "1950",
        "multiple": "1",
        "issue": "633363",
        "title": "\u731c\u8f66\u53f7\u5b9a\u4f4d\u80c6\u5b9a\u4f4d\u80c6",
        "bet_source": "webpage",
        "is_overprize": "0",
        "prize_added": "0",
        "coefficient": "1.00",
        "status_prize": "0",
        "commission": "0.0000",
        "winning_number": "9,8,5,10,2,7,1,3,4,6",
        "total_prize": null,
        "prize": null,
        "status_commission": "4",
        "locked_prize": "0",
        "locked_commission": "0",
        "prize_set": "{\"102\":{\"1\":\"19.5000\"}}",
        "ip": "10.9.2.149",
        "position": "",
        "proxy_ip": "10.8.16.10",
        "canceled_by": null,
        "bought_at": "2017-08-09 16:56:04",
        "canceled_at": null,
        "counted_at": null,
        "prize_sent_at": null,
        "commission_sent_at": "2017-08-09 16:58:08",
        "compress_bet_number": null,
        "is_encoded": "1",
        "series_id": "19",
        "series_set_id": "1",
        "skeyiv": "s96TKxe1HbcsBF\/vKkihSodDptrr1JDFr5AW+abK2omgPCB9l9+3Zma\/FdWjQcxcM0CVyb6q8hNoEmYS3f\/ckw==",
        "friendly_name": "\u5317\u4eacPK10"
      },
      {
        "id": "101071097",
        "serial_number": "EBD2788427166127C897927F4513D315",
        "lottery_id": "53",
        "amount": "2.0000",
        "display_bet_number": "1|3",
        "status": "2",
        "created_at": "2017-08-09 16:54:44",
        "way_id": "272",
        "bet_number": "0|2",
        "trace_id": null,
        "user_id": "43090",
        "username": "testtvd001",
        "is_tester": "1",
        "user_forefather_ids": "78,43016",
        "account_id": "42947",
        "prize_group": "1950",
        "multiple": "1",
        "issue": "633363",
        "title": "\u731c\u6392\u4f4d\u76f4\u9009\u51a0\u4e9a\u519b",
        "bet_source": "webpage",
        "is_overprize": "0",
        "prize_added": "0",
        "coefficient": "1.00",
        "status_prize": "0",
        "commission": "0.0000",
        "winning_number": "9,8,5,10,2,7,1,3,4,6",
        "total_prize": null,
        "prize": null,
        "status_commission": "4",
        "locked_prize": "0",
        "locked_commission": "0",
        "prize_set": "{\"104\":{\"1\":\"175.5000\"}}",
        "ip": "10.9.2.149",
        "position": "",
        "proxy_ip": "10.8.16.10",
        "canceled_by": null,
        "bought_at": "2017-08-09 16:54:44",
        "canceled_at": null,
        "counted_at": null,
        "prize_sent_at": null,
        "commission_sent_at": "2017-08-09 16:58:07",
        "compress_bet_number": null,
        "is_encoded": "1",
        "series_id": "19",
        "series_set_id": "1",
        "skeyiv": "kwjPZel8a8BtCjMsbdWeZ5SZI2MVJd9F\/1h2x9IyS0qgrA4V8xu7PU7LjWbbTgzzAs44bHz4GnE4WfT1kzxcYQ==",
        "friendly_name": "\u5317\u4eacPK10"
      },
      {
        "id": "101040275",
        "serial_number": "E6EF9139E7B32B6591BE997D87FA5184",
        "lottery_id": "44",
        "amount": "1900.0000",
        "display_bet_number": "\u5e84",
        "status": "2",
        "created_at": "2017-08-09 14:26:05",
        "way_id": "250",
        "bet_number": "1",
        "trace_id": null,
        "user_id": "43090",
        "username": "testtvd001",
        "is_tester": "1",
        "user_forefather_ids": "78,43016",
        "account_id": "42947",
        "prize_group": "1950",
        "multiple": "95000",
        "issue": "1708090639",
        "title": "\u95f2\u5e84\u5927\u5c0f",
        "bet_source": "webpage",
        "is_overprize": "0",
        "prize_added": "0",
        "coefficient": "0.01",
        "status_prize": "0",
        "commission": "0.0098",
        "winning_number": "50 32|04 21 15",
        "total_prize": null,
        "prize": null,
        "status_commission": "4",
        "locked_prize": "0",
        "locked_commission": "0",
        "prize_set": "{\"89\":{\"1\":\"4.0000\",\"2\":\"3.0000\",\"3\":\"2.0000\"}}",
        "ip": "10.9.2.28",
        "position": "",
        "proxy_ip": "10.8.16.10",
        "canceled_by": null,
        "bought_at": "2017-08-09 14:26:05",
        "canceled_at": null,
        "counted_at": null,
        "prize_sent_at": null,
        "commission_sent_at": "2017-08-09 14:26:47",
        "compress_bet_number": null,
        "is_encoded": "1",
        "series_id": "18",
        "series_set_id": "2",
        "skeyiv": "IZDjSE0gxNlOdm9MfSvQhBESiI5b3SaNr4sF6oBp6MFFDuuKTdKgF3B3AhvfQordsAZN5QtywP0xp3kVQwblEw==",
        "friendly_name": "\u767e\u5bb6\u4e50\u5a31\u4e501\u684c"
      },
      {
        "id": "101040137",
        "serial_number": "E0FC51FAAB70ACE0F30FC57E3B25ABA7",
        "lottery_id": "44",
        "amount": "980.0000",
        "display_bet_number": "\u5e84",
        "status": "3",
        "created_at": "2017-08-09 14:25:12",
        "way_id": "250",
        "bet_number": "1",
        "trace_id": null,
        "user_id": "43090",
        "username": "testtvd001",
        "is_tester": "1",
        "user_forefather_ids": "78,43016",
        "account_id": "42947",
        "prize_group": "1950",
        "multiple": "49000",
        "issue": "1708090638",
        "title": "\u95f2\u5e84\u5927\u5c0f",
        "bet_source": "webpage",
        "is_overprize": "0",
        "prize_added": "0",
        "coefficient": "0.01",
        "status_prize": "4",
        "commission": "0.0098",
        "winning_number": "02 36|32 02",
        "total_prize": null,
        "prize": "1960.000000",
        "status_commission": "4",
        "locked_prize": "0",
        "locked_commission": "0",
        "prize_set": "{\"89\":{\"1\":\"4.0000\",\"2\":\"3.0000\",\"3\":\"2.0000\"}}",
        "ip": "10.9.2.28",
        "position": "",
        "proxy_ip": "10.8.16.10",
        "canceled_by": null,
        "bought_at": "2017-08-09 14:25:12",
        "canceled_at": null,
        "counted_at": "2017-08-09 14:25:29",
        "prize_sent_at": "2017-08-09 14:25:31",
        "commission_sent_at": "2017-08-09 14:25:28",
        "compress_bet_number": null,
        "is_encoded": "1",
        "series_id": "18",
        "series_set_id": "2",
        "skeyiv": "QCRCdZT94VWQ\/LZmr+af139639m0A6z6J6KM6PfZ2Tk5BRkKFj9D70N\/Q\/rvfeJ2+Lpwq\/nQvmgVOC+iPNpO6A==",
        "friendly_name": "\u767e\u5bb6\u4e50\u5a31\u4e501\u684c"
      },
      {
        "id": "100929003",
        "serial_number": "E8B4D1292B7EDE9735034FF644319E72",
        "lottery_id": "53",
        "amount": "12.0000",
        "display_bet_number": "3,4,5,6,7,8|||||||||",
        "status": "2",
        "created_at": "2017-08-08 21:26:07",
        "way_id": "271",
        "bet_number": "234567|||||||||",
        "trace_id": null,
        "user_id": "43090",
        "username": "testtvd001",
        "is_tester": "1",
        "user_forefather_ids": "78,43016",
        "account_id": "42947",
        "prize_group": "1950",
        "multiple": "1",
        "issue": "633238",
        "title": "\u731c\u8f66\u53f7\u5b9a\u4f4d\u80c6\u5b9a\u4f4d\u80c6",
        "bet_source": "webpage",
        "is_overprize": "0",
        "prize_added": "0",
        "coefficient": "1.00",
        "status_prize": "0",
        "commission": "0.0000",
        "winning_number": "2,9,3,5,1,4,6,7,8,10",
        "total_prize": null,
        "prize": null,
        "status_commission": "4",
        "locked_prize": "0",
        "locked_commission": "0",
        "prize_set": "{\"102\":{\"1\":\"19.5000\"}}",
        "ip": "10.9.2.28",
        "position": "",
        "proxy_ip": "10.8.16.10",
        "canceled_by": null,
        "bought_at": "2017-08-08 21:26:07",
        "canceled_at": null,
        "counted_at": null,
        "prize_sent_at": null,
        "commission_sent_at": "2017-08-08 21:30:55",
        "compress_bet_number": null,
        "is_encoded": "1",
        "series_id": "19",
        "series_set_id": "1",
        "skeyiv": "y3t\/\/gLhHyfN7wwng7kuQOC+gx+ptgbm2MOSR02GdmWP8awP1imvlSX5Bl31H5JkvF8QP240cWryZgTMqpAk8A==",
        "friendly_name": "\u5317\u4eacPK10"
      }
    ],
    "tplData": []
  }
}
